Hw07_map
…
##   long  lat order  hole piece id group
## 1 2.96 36.8     1 FALSE     1  1   1.1
## 2 2.98 36.8     2 FALSE     1  1   1.1
## 3 3.00 36.8     3 FALSE     1  1   1.1
## 4 3.02 36.8     4 FALSE     1  1   1.1
## 5 3.03 36.8     5 FALSE     1  1   1.1
## 6 3.04 36.8     6 FALSE     1  1   1.1

## # A tibble: 57 x 11
##    FIPS  ISO2  ISO3     UN NAME        AREA POP2005 REGION SUBREGION   LON
##  * <fct> <fct> <fct> <int> <fct>      <int>   <int>  <int>     <int> <dbl>
##  1 AG    DZ    DZA      12 Algeria   238174  3.29e7      2        15  2.63
##  2 AO    AO    AGO      24 Angola    124670  1.61e7      2        17 17.5 
##  3 BN    BJ    BEN     204 Benin      11062  8.49e6      2        11  2.47
##  4 CF    CG    COG     178 Congo      34150  3.61e6      2        17 16.0 
##  5 CG    CD    COD     180 Democrat 226705  5.87e7      2        17 23.7 
##  6 BY    BI    BDI     108 Burundi     2568  7.86e6      2        14 29.9 
##  7 CM    CM    CMR     120 Cameroon   46540  1.78e7      2        17 12.3 
##  8 CD    TD    TCD     148 Chad      125920  1.01e7      2        17 18.7 
##  9 CN    KM    COM     174 Comoros      223  7.98e5      2        14 43.3 
## 10 CT    CF    CAF     140 Central   62298  4.19e6      2        17 20.5 
## # ... with 47 more rows, and 1 more variable: LAT <dbl>

## # A tibble: 38,331 x 17
##     long   lat order hole  piece id    group FIPS  ISO2     UN NAME  
##    <dbl> <dbl> <int> <lgl> <fct> <chr> <fct> <fct> <fct> <int> <fct> 
##  1  14.0 -5.85     1 FALSE 1     AGO   AGO.1 AO    AO       24 Angola
##  2  14.1 -5.87     2 FALSE 1     AGO   AGO.1 AO    AO       24 Angola
##  3  14.2 -5.89     3 FALSE 1     AGO   AGO.1 AO    AO       24 Angola
##  4  14.3 -5.89     4 FALSE 1     AGO   AGO.1 AO    AO       24 Angola
##  5  14.6 -5.91     5 FALSE 1     AGO   AGO.1 AO    AO       24 Angola
##  6  14.7 -5.88     6 FALSE 1     AGO   AGO.1 AO    AO       24 Angola
##  7  14.8 -5.88     7 FALSE 1     AGO   AGO.1 AO    AO       24 Angola
##  8  14.9 -5.87     8 FALSE 1     AGO   AGO.1 AO    AO       24 Angola
##  9  15.1 -5.86     9 FALSE 1     AGO   AGO.1 AO    AO       24 Angola
## 10  15.7 -5.86    10 FALSE 1     AGO   AGO.1 AO    AO       24 Angola
## # ... with 38,321 more rows, and 6 more variables: AREA <int>,
## #   POP2005 <int>, REGION <int>, SUBREGION <int>, LON <dbl>, LAT <dbl>

## # A tibble: 149 x 8
##     Year country Rule_of_Law     Anti_Corruption  Pol_Stability  law_cut  
##    <dbl> <chr>   <chr>           <chr>            <chr>          <fct>    
##  1 1996. AGO     3.517587900161 9.67741966247559 3.72340416908 [0,16.4] 
##  2 1996. BEN     53.26633071899 34.9462356567383 84.5744705200 (49.1,65
##  3 1996. BWA     66.83416748046 77.4193572998047 79.7872314453 (65.5,81
##  4 1996. BFA     20.60301589965 60.2150535583496 37.2340431213 (16.4,32
##  5 1996. BDI     7.537688255310 30.6451606750488 3.19148945808 [0,16.4] 
##  6 1996. CPV     81.90954589843 83.3333358764648 82.4468078613 (65.5,81
##  7 1996. CMR     7.035175800323 3.76344084739685 19.6808509826 [0,16.4] 
##  8 1996. CAF     15.57788944244 11.290322303772  11.7021274566 [0,16.4] 
##  9 1996. TCD     11.557788848877 3.22580647468567 18.0851058959 [0,16.4] 
## 10 1996. COM     21.608039855957 16.6666660308838 62.2340431213 (16.4,32
## # ... with 139 more rows, and 2 more variables: stability_cut <fct>,
## #   corruption_cut <fct>
…
