…
# Calculate lift score
for(i in names(ml_score)){
  ml_gains <- ml_score[[i]] %>%
    calculate_lift %>%
    mutate(model = i) %>%
    bind_rows(ml_gains, .)
}

as_tibble(ml_gains)
```

    ## # A tibble: 50 x 3
    ##      bin  prop model
    ##    <int> <dbl> <chr>
    ##  1     1 0.    Base 
    ##  2     2 0.111 Base 
    ##  3     3 0.222 Base 
    ##  4     4 0.333 Base 
    ##  5     5 0.444 Base 
    ##  6     6 0.556 Base 
    ##  7     7 0.667 Base 
    ##  8     8 0.778 Base 
    ##  9     9 0.889 Base 
    ## 10    10 1.00  Base 
    ## # ... with 40 more rows
…
